{
    "create_ts": "2020-11-18 05:11:33.574964",
    "task_id": "cYdtOeilTj2Tu43xgLSZkg",
    "version_id": "o3uZKIrbQcuXdsLkrpgEsg",
    "task_name": "Invoke Rule Task",
    "task_class": "xpms_lib_dag.tasks.invoke_rule_task.Invoke_Rule",
    "name": "Invoke Rule Task",
    "description": "",
    "start": null,
    "end": null,
    "tasks": {},
    "config": {},
    "exec_type": null,
    "category": "services",
    "is_enabled": true,
    "is_published": true,
    "is_deleted": false,
    "compatible_groups": [
        "base_dependency_group"
    ],
    "extras": {
        "index": "services.invoke_rule_task",
        "x_config": [
            {
                "options": [
                    "any",
                    "all"
                ],
                "is_option_object": false,
                "display_key": null,
                "value_key": null,
                "name": "dependencies",
                "description": "dependency on previous tasks to run",
                "data_type": "string",
                "op_type": "categorical",
                "value": "any",
                "multi_select": false,
                "hidden": false,
                "config_path": "config.dependencies",
                "ui_component": "",
                "_XpmsObjectMixin__type": "CategoricalListConfiguration",
                "_XpmsObjectMixin__api_version": "9.5"
            },
            {
                "api": "/rules/fetch_ruleslist",
                "trigger": null,
                "options": "metadata.rules_list",
                "request_data": {
                    "solution_id": "testsol12_vPkMtjqCCA8ZskADa44RXX",
                    "onlyenabled": true
                },
                "display_key": "rule_set_name",
                "value_key": "rule_set_id",
                "custom_request_data": [],
                "name": "rules",
                "description": "select the rule set id which you want to use for executions",
                "data_type": "string",
                "op_type": "categorical",
                "value": null,
                "multi_select": false,
                "hidden": false,
                "config_path": "config.rule_set_id",
                "ui_component": "",
                "_XpmsObjectMixin__type": "PlatformApiListConfiguration",
                "_XpmsObjectMixin__api_version": "9.5"
            }
        ]
    },
    "next": [],
    "previous": [],
    "timeout": 3000,
    "retries": 0,
    "instance_id": "g7YK7rcnTKKLKjW3y9_iRw",
    "created_by": "system",
    "modified_by": "system",
    "cts": "",
    "uts": "",
    "_XpmsObjectMixin__type": "Task",
    "_XpmsObjectMixin__api_version": "9.5"
}