{
    "task_class": "xpms_lib_dag.tasks.mq_task.MqTask",
    "exec_type": "sync",
    "compatible_groups": [
        "base_dependency_group"
    ],
    "is_enabled": true,
    "category": "services",
    "name": "Post Processing Of Extract Paragraph",
    "description": "Post Processing Of Extract Paragraph for each page of document..",
    "cts": "",
    "is_deleted": false,
    "uts": "",
    "default_version": "v1",
    "created_by": "system",
    "modified_by": "system",
    "_XpmsObjectMixin__type": "TaskVersionBundle",
    "_XpmsObjectMixin__api_version": "9.5",
    "task_id": "42u3-R_ETOe3zeHiZx0_xw"
}