{
    "task_class": "xpms_lib_dag.tasks.ingest_ab_data_pulse_task.IngestPulseData",
    "exec_type": "sync",
    "compatible_groups": [
        "base_dependency_group"
    ],
    "is_enabled": true,
    "category": "services",
    "name": "Ingest AB test data to pulse",
    "description": "",
    "cts": "",
    "is_deleted": false,
    "uts": "",
    "default_version": "92Uw9kY0R3GGzqCJfYSEug",
    "created_by": "system",
    "modified_by": "system",
    "_XpmsObjectMixin__type": "TaskVersionBundle",
    "_XpmsObjectMixin__api_version": "9.5",
    "task_id": "ZFXvKztxRsuXP0oc2TePog"
}