{
    "name": "assisted_features_data",
    "description": "trigger models for incrimental training.",
    "created_by": "system",
    "modified_by": "system",
    "cts": "",
    "uts": "2020-11-13T16:29:31.104344",
    "_XpmsObjectMixin__type": "Service",
    "_XpmsObjectMixin__api_version": "9.5",
    "service_id": "050aa5d1-f4c8-4680-ad48-a53f021486b5",
    "service_key": "assisted_features_data_key",
    "display_name": "Train Assisted Data",
    "feedback_supported": false,
    "is_deleted": false,
    "is_enabled": true,
    "is_service": true,
    "object_type": [
        "document"
    ],
    "request_schema": "{}",
    "response_schema": "{}",
    "request_trigger": "assisted_features_data",
    "response_trigger": "assisted_features_data_response",
    "headers": {},
    "service_configuration": [
        "{\"options\": [], \"is_option_object\": false, \"display_key\": null, \"value_key\": null, \"name\": \"dependencies\", \"description\": \"dependency on previous tasks to run\", \"data_type\": \"string\", \"op_type\": \"categorical\", \"value\": \"any\", \"multi_select\": false, \"hidden\": false, \"config_path\": null, \"_XpmsObjectMixin__type\": \"CategoricalListConfiguration\", \"_XpmsObjectMixin__api_version\": \"1.0.13\", \"values\": [\"any\", \"all\"]}"
    ],
    "service_configuration_schema": "{}",
    "feedback_endpoint": "",
    "method": "GET",
    "service_endpoint": "",
    "timeout": {
        "unit": "seconds",
        "value": "100"
    },
    "category_id": "category_6",
    "service_name": "assisted_features_data",
    "service_type": "INTERNAL"
}