{
    "name": "generate_searchable_pdf",
    "description": "service to generate searchable pdf from pages",
    "created_by": "system",
    "modified_by": "system",
    "cts": "",
    "uts": "2020-11-17T16:39:19.628308",
    "_XpmsObjectMixin__type": "Service",
    "_XpmsObjectMixin__api_version": "9.5",
    "service_id": "146ec0be-26d2-419c-aab4-612d23722a19",
    "service_key": "generated_pdf_key",
    "display_name": "Generate Searchable Pdf Document",
    "feedback_supported": false,
    "is_deleted": false,
    "is_enabled": true,
    "is_service": true,
    "object_type": [
        "document"
    ],
    "request_schema": "{\"type\": \"object\", \"properties\": {\"request_id\": {\"type\": \"string\"}, \"solution_id\": {\"type\": \"string\"}, \"data\": {\"type\": \"object\", \"properties\": {\"doc_id\": {\"type\": \"string\"}}, \"required\": [\"doc_id\"]}, \"trigger\": {\"enum\": [\"extract_metadata_json\"]}}, \"required\": [\"request_id\", \"solution_id\", \"trigger\", \"data\"]}",
    "response_schema": "{\"type\": \"object\", \"properties\": {\"request_id\": {\"type\": \"string\"}, \"solution_id\": {\"type\": \"string\"}, \"metadata\": {\"type\": \"object\", \"properties\": {\"doc_id\": {\"type\": \"string\"}, \"document_metadata\": {\"type\": \"object\"}}, \"required\": [\"doc_id\"]}, \"status\": {\"type\": \"object\"}, \"trigger\": {\"enum\": [\"extract_metadata_json_response\"]}}, \"required\": [\"request_id\", \"solution_id\", \"trigger\", \"metadata\"]}",
    "request_trigger": "generate_pdf",
    "response_trigger": "generate_pdf_response",
    "headers": {},
    "service_configuration": "{}",
    "service_configuration_schema": "{}",
    "feedback_endpoint": "",
    "method": "GET",
    "service_endpoint": "",
    "timeout": {
        "unit": "seconds",
        "value": "10"
    },
    "category_id": "category_3",
    "service_name": "generate_searchable_pdf",
    "service_type": "INTERNAL"
}