{
    "name": "update_attr_conf_score",
    "description": "",
    "created_by": "system",
    "modified_by": "system",
    "cts": "",
    "uts": "2020-11-12T16:13:21.735497",
    "_XpmsObjectMixin__type": "Service",
    "_XpmsObjectMixin__api_version": "9.5",
    "service_id": "9d846229-43b2-4856-8f99-30d785863535",
    "service_key": "update_attr_conf_score",
    "display_name": "Update Attribute Confidence Score",
    "feedback_supported": true,
    "is_deleted": false,
    "is_enabled": true,
    "is_service": true,
    "object_type": [
        "document",
        "domain"
    ],
    "request_schema": "{}",
    "response_schema": "{}",
    "request_trigger": "update_attr_conf_score_request",
    "response_trigger": "update_attr_conf_score_response",
    "headers": {},
    "service_configuration": "{}",
    "service_configuration_schema": "{}",
    "feedback_endpoint": "",
    "method": "GET",
    "service_endpoint": "",
    "timeout": {
        "unit": "seconds",
        "value": "10"
    },
    "category_id": "category_4",
    "service_name": "update_attr_conf_score",
    "service_type": "INTERNAL"
}