{
    "name": "extract_paragraphs",
    "description": "Extract Paragraphs for each page of document.",
    "created_by": "system",
    "modified_by": "system",
    "cts": "",
    "uts": "2020-11-13T16:29:30.382923",
    "_XpmsObjectMixin__type": "Service",
    "_XpmsObjectMixin__api_version": "9.5",
    "service_id": "a5a96003-719f-4398-a8fa-a2b348c4ac56",
    "service_key": "extract_paragraphs_key",
    "display_name": "Extract Paragraphs",
    "feedback_supported": false,
    "is_deleted": false,
    "is_enabled": true,
    "is_service": true,
    "object_type": [
        "document"
    ],
    "request_schema": "{}",
    "response_schema": "{}",
    "request_trigger": "extract_paragraphs",
    "response_trigger": "extract_paragraphs_response",
    "headers": {},
    "service_configuration": "{\"dependencies\": {\"options\": [\"any\", \"all\"], \"is_option_object\": false, \"display_key\": null, \"value_key\": null, \"name\": \"dependencies\", \"description\": \"dependency on previous tasks to run\", \"data_type\": \"string\", \"op_type\": \"categorical\", \"value\": \"any\", \"multi_select\": false, \"hidden\": false, \"config_path\": \"config.dependencies\", \"ui_component\": \"\", \"_XpmsObjectMixin__type\": \"CategoricalListConfiguration\", \"_XpmsObjectMixin__api_version\": \"9.5\"}, \"Min No of Rows In Paragraph\": {\"min_value\": 1, \"max_value\": 100, \"closure\": \"closed_closed\", \"name\": \"Min No of Rows In Paragraph\", \"description\": \"min no. of rows defined in para\", \"data_type\": \"integer\", \"op_type\": \"continuous\", \"value\": 2, \"multi_select\": false, \"hidden\": false, \"config_path\": \"config.data.configuration.min_no_of_lines_in_para\", \"ui_component\": \"\", \"_XpmsObjectMixin__type\": \"NumericConfiguration\", \"_XpmsObjectMixin__api_version\": \"9.5\"}}",
    "service_configuration_schema": "{}",
    "feedback_endpoint": "",
    "method": "GET",
    "service_endpoint": "",
    "timeout": {
        "unit": "seconds",
        "value": "100"
    },
    "category_id": "category_3",
    "service_name": "extract_paragraphs",
    "service_type": "INTERNAL"
}