{
    "create_ts": "2020-11-18 05:11:58.884952",
    "task_id": "XTJY-do_SQW255DNEnOcIQ",
    "version_id": "v1",
    "task_name": "SKL KNN Imputer",
    "task_class": "ml_lib.model.dag_tasks.ml_task.MLTask",
    "name": "SKL KNN Imputer",
    "description": "SKL KNN Imputer",
    "start": null,
    "end": null,
    "tasks": {},
    "config": {
        "algorithm": {
            "auto_tuner": {
                "name": "grid_search"
            },
            "class": "sklearn.impute.KNNImputer"
        },
        "source_type": "lib",
        "source": "ml_lib.resources.task_scripts.dataset_knn_imputer",
        "files": []
    },
    "exec_type": null,
    "category": "ml",
    "is_enabled": false,
    "is_published": true,
    "is_deleted": false,
    "compatible_groups": [
        "default_dependency_package_group"
    ],
    "extras": {
        "ui_index": "sklearn.imputation.KNNImputer",
        "x_config": [
            {
                "options": [
                    "int",
                    "nan"
                ],
                "is_option_object": false,
                "display_key": null,
                "value_key": null,
                "name": "missing_values",
                "description": "The placeholder for missing values type",
                "data_type": "string",
                "op_type": "categorical",
                "value": "nan",
                "multi_select": false,
                "hidden": false,
                "config_path": "config.algorithm.configuration.missing_value_dt",
                "ui_component": "",
                "_XpmsObjectMixin__type": "CategoricalListConfiguration",
                "_XpmsObjectMixin__api_version": "9.5"
            },
            {
                "name": "values to replace",
                "description": "The placeholder for missing values. All occurrences of missing_values will be imputed",
                "data_type": "string",
                "op_type": "continuous",
                "value": "nan",
                "multi_select": false,
                "hidden": false,
                "config_path": "config.algorithm.configuration.missing_values",
                "ui_component": "",
                "_XpmsObjectMixin__type": "StringConfiguration",
                "_XpmsObjectMixin__api_version": "9.5"
            },
            {
                "name": "Column Name/s",
                "description": "Column names on which imputation is to be performed",
                "data_type": "string",
                "op_type": "continuous",
                "value": "all",
                "multi_select": true,
                "hidden": false,
                "config_path": "config.algorithm.configuration.col_name",
                "ui_component": "",
                "_XpmsObjectMixin__type": "StringConfiguration",
                "_XpmsObjectMixin__api_version": "9.5"
            },
            {
                "min_value": 0,
                "max_value": 100,
                "closure": "closed_closed",
                "name": "n_neighbors",
                "description": "Number of neighboring samples to use for imputation",
                "data_type": "integer",
                "op_type": "continuous",
                "value": 5,
                "multi_select": false,
                "hidden": false,
                "config_path": "config.algorithm.configuration.n_neighbors",
                "ui_component": "",
                "_XpmsObjectMixin__type": "NumericConfiguration",
                "_XpmsObjectMixin__api_version": "9.5"
            },
            {
                "options": [
                    "uniform",
                    "distance"
                ],
                "is_option_object": false,
                "display_key": null,
                "value_key": null,
                "name": "weights",
                "description": "Weight function used in prediction",
                "data_type": "string",
                "op_type": "categorical",
                "value": "uniform",
                "multi_select": false,
                "hidden": false,
                "config_path": "config.algorithm.configuration.weights",
                "ui_component": "",
                "_XpmsObjectMixin__type": "CategoricalListConfiguration",
                "_XpmsObjectMixin__api_version": "9.5"
            },
            {
                "name": "metric",
                "description": "The Distance metric for searching neighbors",
                "data_type": "string",
                "op_type": "continuous",
                "value": "nan_euclidean",
                "multi_select": false,
                "hidden": false,
                "config_path": "config.algorithm.configuration.metric",
                "ui_component": "",
                "_XpmsObjectMixin__type": "StringConfiguration",
                "_XpmsObjectMixin__api_version": "9.5"
            },
            {
                "options": [
                    "any",
                    "all"
                ],
                "is_option_object": false,
                "display_key": null,
                "value_key": null,
                "name": "dependencies",
                "description": "dependency on previous tasks to run",
                "data_type": "string",
                "op_type": "categorical",
                "value": "any",
                "multi_select": false,
                "hidden": false,
                "config_path": "config.dependencies",
                "ui_component": "",
                "_XpmsObjectMixin__type": "CategoricalListConfiguration",
                "_XpmsObjectMixin__api_version": "9.5"
            }
        ]
    },
    "next": [],
    "previous": [],
    "timeout": 3000,
    "retries": 0,
    "instance_id": "l1KBkGQ7SACPbOGOlegIAw",
    "created_by": "system",
    "modified_by": "system",
    "cts": "",
    "uts": "",
    "_XpmsObjectMixin__type": "Task",
    "_XpmsObjectMixin__api_version": "9.5"
}